{
    "$schema": "https://json-schema.org/draft/2020-12/schema",
    "title": "ChangeAvailabilityRequest",
    "type": "object",
    "properties": {
        "connectorId": {
            "type": "integer"
        },
        "type": {
            "type": "string",
            "enum": [
                "Inoperative",
                "Operative"
            ],
            "title": "ChangeAvailabilityType"
        }
    },
    "additionalProperties": false,
    "required": [
        "connectorId",
        "type"
    ]
}
