{
    "$schema": "https://json-schema.org/draft/2020-12/schema",
    "title": "ChangeConfigurationRequest",
    "type": "object",
    "properties": {
        "key": {
            "type": "string",
            "maxLength": 50
        },
        "value": {
            "type": "string",
            "maxLength": 500
        }
    },
    "additionalProperties": false,
    "required": [
        "key",
        "value"
    ]
}
