{
    "$schema": "https://json-schema.org/draft/2020-12/schema",
    "title": "GetConfigurationRequest",
    "type": "object",
    "properties": {
        "key": {
            "type": "array",
            "items": {
                "type": "string",
				"maxLength": 50
            }
        }
    },
    "additionalProperties": false
}
